{
  "TAN/TAXN":{
    "TAN81":{
      "name": "TAN81",
      "side": 1,
      "x": 0,
      "y": 0,
      "z": 141580.0,
      "width": 91.0,
      "height": 181.0,
      "depth": 943.0
    },
    "TAN12":{
      "name": "TAN12",
      "side": -1,
      "x": 0,
      "y": 0,
      "z": -141580.0,
      "width": 91.0,
      "height": 181.0,
      "depth": 943.0
    }
  },
  "Detector": {
    "ZDC1": {
      "name": "81EM",
      "side": 1,
      "module": 0,
      "type": 1,
      "x": 0,
      "y": 0,
      "z": 141254.0,
      "q": 0,
      "i": 0,
      "j": 0,
      "k": 0
    },
    "ZDC2": {
      "name": "81H1",
      "side": 1,
      "module": 1,
      "type": 2,
      "x": 0,
      "y": 0,
      "z": 141600.0,
      "q": 0,
      "i": 0,
      "j": 0,
      "k": 0
    },
    "ZDC3": {
      "name": "81H2",
      "side": 1,
      "module": 2,
      "type": 1,
      "x": 0,
      "y": 0,
      "z": 141769.0,
      "q": 0,
      "i": 0,
      "j": 0,
      "k": 0
    },
    "ZDC4": {
      "name": "81H3",
      "side": 1,
      "module": 3,
      "type": 1,
      "x": 0,
      "y": 0,
      "z": 141924.0,
      "q": 0,
      "i": 0,
      "j": 0,
      "k": 0
    },
    "ZDC5": {
      "name": "12EM",
      "side": -1,
      "module": 0,
      "type": 3,
      "x": 0,
      "y": 0,
      "z": -141236.0,
      "q": 0,
      "i": 0,
      "j": 0,
      "k": 0
    },
    "ZDC6": {
      "name": "12H1",
      "side": -1,
      "module": 1,
      "type": 2,
      "x": 0,
      "y": 0,
      "z": -141632.0,
      "q": 0,
      "i": 0,
      "j": 1,
      "k": 0
    },
    "ZDC7": {
      "name": "12H2",
      "side": -1,
      "module": 2,
      "type": 1,
      "x": 0,
      "y": 0,
      "z": -141801.0,
      "q": 0,
      "i": 0,
      "j": 1,
      "k": 0
    },
    "ZDC8": {
      "name": "12H3",
      "side": -1,
      "module": 3,
      "type": 1,
      "x": 0,
      "y": 0,
      "z": -141956.0,
      "q": 0,
      "i": 0,
      "j": 1,
      "k": 0
    },
    "RPD1": {
      "name": "RPD12",
      "side": -1,
      "module": 4,
      "x": -2.012,
      "y": 21.388,
      "z": -141402.0,
      "q": 0,
      "i": 0,
      "j": 1,
      "k": 0
    },
    "RPD2": {
      "name": "RPD81",
      "side": 1,
      "module": 4,
      "x": 1.774,
      "y": 21.344,
      "z": 141370.0,
      "q": 0,
      "i": 0,
      "j": 0,
      "k": 0
    },
    "BRAN1": {
      "name": "BRAN12",
      "side": -1,
      "module": 5,
      "x": 0,
      "y": 0,
      "z": -141490.0,
      "q": 0,
      "i": 0,
      "j": 1,
      "k": 0
    },
    "BRAN2": {
      "name": "BRAN81",
      "side": 1,
      "module": 5,
      "x": 0,
      "y": 0,
      "z": 141458.0,
      "q": 0,
      "i": 0,
      "j": 0,
      "k": 0
    }
  }
}
